sku,post_title,post_content,stock,regular_price,price,tags,category
1,toy1,hehe,10,100,80,gundam,figure
2,toy2,hehe,10,100,80,gundam,figure
3,toy3,hehe,10,100,80,gundam,figure
4,toy4,hehe,10,100,80,gundam,figure
5,toy5,hehe,10,100,80,gundam,figure
6,toy6,hehe,10,100,80,gundam,figure
7,toy7,hehe,10,100,80,gundam,figure
8,toy8,hehe,10,100,80,gundam,figure
9,toy9,hehe,10,100,80,gundam,figure
10,toy10,hehe,10,100,80,gundam,figure
